  0 SNES Function norm 4.888635593992e-01 
Norm of search step 0.2
  1 SNES Function norm 3.537933499432e-01 
Norm of search step 0.4
  2 SNES Function norm 1.806018499929e-01 
Norm of search step 0.528382
  3 SNES Function norm 1.291049622806e-01 
Norm of search step 0.647348
Norm of search step 0.2
  4 SNES Function norm 1.200728775967e-01 
Norm of search step 0.2
Norm of search step 0.05
  5 SNES Function norm 1.153774447071e-01 
Norm of search step 0.1
Norm of search step 0.025
Norm of search step 0.00625
Norm of search step 0.0015625
Norm of search step 0.000390625
Norm of search step 9.76562e-05
Norm of search step 2.44141e-05
Norm of search step 6.10352e-06
Norm of search step 1.52588e-06
Norm of search step 3.8147e-07
Norm of search step 9.53674e-08
Norm of search step 2.38419e-08
Norm of search step 5.96046e-09
Nonlinear solve did not converge due to DIVERGED_INNER iterations 5
Number of SNES iterations = 5
